<svg xmlns="http://www.w3.org/2000/svg" width="165" height="138" viewBox="0 0 165 138">
    <g fill="none">
        <path fill="#0070CD" d="M120.715.182c-7.74-.373-15.614-.31-23.088 1.525C90.152 3.542 83.044 7.318 78.79 13.11c-2.435 3.316-3.889 7.2-6.725 10.25-4.92 5.288-12.962 7.105-20.384 8.929-17.428 4.264-34.954 10.425-47.596 21.966C2.27 55.91.5 57.797.09 60.085c-.63 3.518 2.145 6.809 5.224 9.06 3.079 2.252 6.722 4.038 9 6.958 2.906 3.725 3.07 8.646 2.244 13.12-.825 4.473-2.522 8.825-2.97 13.348-.11 1.115-.136 2.278.35 3.31.645 1.367 2.08 2.295 3.485 3.076 4.984 2.78 10.362 4.797 15.952 5.98 9.63 2.052 19.674 1.667 29.534 2.51 9.86.842 20.13 3.2 27.06 9.52 4.25 3.876 8.085 9.528 14.145 9.337 3.396-.107 6.395-2.17 9.783-2.4 3.813-.259 7.26 1.804 10.855 2.98 5.107 1.673 11.02 1.51 15.808-.795 4.789-2.306 8.265-6.822 8.546-11.676.273-4.756-2.32-9.205-3.818-13.775-4.914-14.974 1.998-30.797 8.87-45.143 6.872-14.346 13.964-30.05 9.391-45.112C158.241 2.915 137.681.998 120.715.182z" opacity=".1"/>
        <path fill="#3F3D56" d="M134.392 128.998H30.148c-7.119 0-12.89-5.771-12.89-12.89V68.35c0-1.402.577-2.742 1.594-3.706L74.09 12.281c4.586-4.347 11.772-4.347 16.358 0l52.667 49.924c2.66 2.52 4.165 6.024 4.165 9.687v44.216c0 3.419-1.358 6.697-3.775 9.115-2.417 2.417-5.696 3.775-9.114 3.775z"/>
        <path fill="#000" d="M17.258 69.133h128.94v52.082c0 4.298-3.485 7.783-7.783 7.783H25.04c-4.298 0-7.783-3.485-7.783-7.783V69.133z" opacity=".1"/>
        <rect width="95.892" height="95.892" x="34.188" y="28.095" fill="#0070CD" rx="10"/>
        <path fill="#000" d="M130.08 71.287L130.08 123.987 34.188 123.987 34.188 71.287 82.134 94.461z" opacity=".1"/>
        <path fill="#3F3D56" d="M82.134 97.44L20.7 67.747c-.772-.373-1.682-.323-2.409.133-.727.456-1.168 1.253-1.168 2.111v51.088c0 2.064.82 4.044 2.28 5.504s3.439 2.28 5.503 2.28h114.457c2.064 0 4.043-.82 5.503-2.28s2.28-3.44 2.28-5.504V70.866c0-1.046-.539-2.02-1.426-2.576-.886-.556-1.997-.618-2.94-.162L82.134 97.44z"/>
        <path fill="#F2F2F2" d="M42.45 36.898H69.267V40.690000000000005H42.45zM40.283 50.713H119.922V52.88H40.283zM40.283 58.027H119.922V60.194H40.283zM40.283 65.341H119.922V67.508H40.283z"/>
    </g>
</svg>
